{
    "KPackageStructure": "KWin/Effect",
    "KPlugin": {
        "Authors": [
            {
                "Email": "kde@privat.broulik.de",
                "Name": "Kai Uwe Broulik",
                "Name[ar]": "كاي أووي بروتيك",
                "Name[be]": "Kai Uwe Broulik",
                "Name[bg]": "Kai Uwe Broulik",
                "Name[ca@valencia]": "Kai Uwe Broulik",
                "Name[ca]": "Kai Uwe Broulik",
                "Name[cs]": "Kai Uwe Broulik",
                "Name[en_GB]": "Kai Uwe Broulik",
                "Name[es]": "Kai Uwe Broulik",
                "Name[et]": "Kai Uwe Broulik",
                "Name[eu]": "Kai Uwe Broulik",
                "Name[fr]": "Kai Uwe Broulik",
                "Name[ia]": "Kai Uwe Broulik",
                "Name[it]": "Kai Uwe Broulik",
                "Name[ka]": "კაი უვე ბროულიკი",
                "Name[nl]": "Kai Uwe Broulik",
                "Name[pl]": "Kai Uwe Broulik",
                "Name[pt]": "Kai Uwe Broulik",
                "Name[sl]": "Kai Uwe Broulik",
                "Name[ta]": "காய் ஊவே புரோலிக்",
                "Name[tr]": "Kai Uwe Broulik",
                "Name[uk]": "Kai Uwe Broulik",
                "Name[vi]": "Kai Uwe Broulik",
                "Name[x-test]": "xxKai Uwe Broulikxx"
            }
        ],
        "Category": "Appearance",
        "Description": "Desaturate windows of unresponsive (frozen) applications",
        "Description[ar]": "أظلم نوافذ التطبيقات غير المستجيبة (متجمدة)",
        "Description[be]": "Абясколерванне праграм, якія не адказваюць (працэсы якіх замарожаныя)",
        "Description[bg]": "Избледняване на прозорците на нереагиращи приложения",
        "Description[ca@valencia]": "Dessatura les finestres de les aplicacions que no responen (congelades)",
        "Description[ca]": "Dessatura les finestres de les aplicacions que no responen (congelades)",
        "Description[cs]": "Ztmaví okna nereagujících (zamrzlých) aplikací",
        "Description[en_GB]": "Desaturate windows of unresponsive (frozen) applications",
        "Description[es]": "Desaturar ventanas de las aplicaciones que no responden (congeladas)",
        "Description[et]": "Reageerimisvõimetute (hangunud) rakenduste akende muutmine kahvatuks",
        "Description[eu]": "Erantzuten ez duten aplikazioen leihoak (izoztutakoak) desasetzea",
        "Description[fr]": "Dé-saturer les fenêtres des applications non réactives (gelées)",
        "Description[ia]": "Destura fenestras de applicationes non responsive (congelate)",
        "Description[it]": "Desatura le finestre delle applicazione che non rispondono (bloccate)",
        "Description[nl]": "Verzadiging van vensters van niet responsieve (bevroren) toepassingen verminderen",
        "Description[pl]": "Odbarwia okna nieodpowiadających (zawieszonych) aplikacji",
        "Description[pt]": "Reduzir a saturação das janelas bloqueadas (sem resposta)",
        "Description[sl]": "Zmanjša nasičenost neodzivnih (zamrznjenih) programov",
        "Description[ta]": "பதிலளிக்காத செயலிகளின் சாளரங்களை நிறமில்லாமல் (கருப்புவெள்ளையாக) காட்டும்",
        "Description[tr]": "Yanıt vermeyen (donmuş) uygulamaların pencerelerini soldur",
        "Description[uk]": "Зменшення насиченості кольорів вікон програм, які не відповідають на запити (повисли)",
        "Description[vi]": "Khử bão hoà các cửa sổ của các ứng dụng không hồi đáp (đơ)",
        "Description[x-test]": "xxDesaturate windows of unresponsive (frozen) applicationsxx",
        "EnabledByDefault": true,
        "Icon": "preferences-system-windows-effect-frozenapp",
        "Id": "kwin4_effect_frozenapp",
        "License": "GPL",
        "Name": "Desaturate Unresponsive Applications",
        "Name[ar]": "أظلم التطبيقات غير المستجيبة",
        "Name[be]": "Абясколерванне праграм, якія не адказваюць",
        "Name[bg]": "Избледняване на нереагиращи приложения",
        "Name[ca@valencia]": "Dessatura les aplicacions que no responen",
        "Name[ca]": "Dessatura les aplicacions que no responen",
        "Name[cs]": "Ztmavit nereagující aplikace",
        "Name[en_GB]": "Desaturate Unresponsive Applications",
        "Name[es]": "Desaturar las aplicaciones que no responden",
        "Name[et]": "Reageerimisvõimetute rakenduste muutmine kahvatuks",
        "Name[eu]": "Desasetu erantzuten ez duten aplikazioak",
        "Name[fr]": "Dé-saturer les applications non réactives",
        "Name[ia]": "Desatura applicationes non responsive",
        "Name[it]": "Desatura le applicazioni che non rispondono",
        "Name[ka]": "უსიცოცხლო აპლიკაციების გაუფერულება",
        "Name[nl]": "Verzadiging van niet responsieve toepassingen verminderen",
        "Name[pl]": "Odbarwienie nieodpowiadających aplikacji",
        "Name[pt]": "Reduzir a Saturação das Aplicações Bloqueadas",
        "Name[sl]": "Zmanjšaj nasičenost neodzivnih programov",
        "Name[ta]": "பதிலளிக்காத செயலிகளை கருப்புவெள்ளையாக்கு",
        "Name[tr]": "Yanıt Vermeyen Uygulamaları Solgunlaştır",
        "Name[uk]": "Зненасичення вікон, які не відповідають на запити",
        "Name[vi]": "Khử bão hoà các ứng dụng không hồi đáp",
        "Name[x-test]": "xxDesaturate Unresponsive Applicationsxx",
        "Version": "1.0"
    },
    "X-KDE-Ordering": "60",
    "X-KDE-PluginKeyword": "kwin4_effect_frozenapp",
    "X-KWin-Config-TranslationDomain": "kwin_effects",
    "X-Plasma-API": "javascript",
    "X-Plasma-MainScript": "code/main.js"
}
