{
    "Categories": "Qt;KDE;X-KDE-settings-looknfeel;",
    "KPlugin": {
        "BugReportUrl": "https://bugs.kde.org/enter_bug.cgi?product=systemsettings&component=kcm_kwindecoration",
        "Description": "Configure window titlebars and borders",
        "Description[ar]": "اضبط حدود وشريط عنوان النوافذ",
        "Description[az]": "Pəncərə başlıq zolağını və çərçivələrini tənzimləyin",
        "Description[be]": "Наладжванне панэляў загалоўкаў і рамкі",
        "Description[bg]": "Конфигуриране на заглавни ленти и рамки на прозорци",
        "Description[ca@valencia]": "Configura les barres de títols i les vores de les finestres",
        "Description[ca]": "Configura les barres de títols i les vores de les finestres",
        "Description[de]": "Titelleiste und Ränder von Fenstern einrichten",
        "Description[en_GB]": "Configure window title-bars and borders",
        "Description[es]": "Configurar las barras de título y los bordes de las ventanas",
        "Description[et]": "Akende tiitliriba ja raami seadistamine",
        "Description[eu]": "Konfiguratu leihoen titulu-barrak eta ertzak",
        "Description[fi]": "Ikkunoiden otsikkopalkkien ja reunojen asetukset",
        "Description[fr]": "Configurer les barres de titre et les bordures des fenêtres",
        "Description[ia]": "Configura barras de titulo e margines",
        "Description[id]": "Konfigurasikan bingkai dan bilah judul jendela",
        "Description[it]": "Configura la barra del titolo e i bordi delle finestre",
        "Description[ja]": "ウィンドウのタイトルバーと枠を設定",
        "Description[ka]": "ფანჯრის სათაურის ზოლისა და საზღვრების მორგება",
        "Description[ko]": "창 제목 표시줄과 경계선 설정",
        "Description[nl]": "Titelbalken en randen van venster configureren",
        "Description[nn]": "Set opp tittellinjer og vindaugsrammer",
        "Description[pl]": "Ustawienia pasków tytułów i obramowań okien",
        "Description[pt]": "Configurar as barras de título e contornos das janelas",
        "Description[pt_BR]": "Configure as barras de títulos e bordas da janela",
        "Description[ro]": "Configurează barele de titlu și contururile ferestrelor",
        "Description[ru]": "Настройка заголовка и границ окон",
        "Description[sk]": "Nastaviť záhlavia a okraje okna",
        "Description[sl]": "Prilagodite naslovne vrstice in obrobe oken",
        "Description[sv]": "Anpassa namnlister och kanter för fönster",
        "Description[ta]": "சாளர விளிம்புகளையும் தலைப்புப்பட்டைகளையும் அமையுங்கள்",
        "Description[tr]": "Masaüstü pencere başlık çubukları ve kenarlıklarını yapılandır",
        "Description[uk]": "Налаштовування смужок заголовків та рамок вікон",
        "Description[vi]": "Cấu hình thanh tiêu đề và viền của cửa sổ",
        "Description[x-test]": "xxConfigure window titlebars and bordersxx",
        "Description[zh_CN]": "配置窗口标题栏和边框",
        "Description[zh_TW]": "設定視窗標題列和邊框",
        "FormFactors": [
            "desktop",
            "tablet"
        ],
        "Icon": "preferences-desktop-theme-windowdecorations",
        "Name": "Window Decorations",
        "Name[ar]": "زخارف النوافذ",
        "Name[az]": "Pəncərə haşiyələri",
        "Name[be]": "Аздабленне акон",
        "Name[bg]": "Декорации на прозорци",
        "Name[ca@valencia]": "Decoració de les finestres",
        "Name[ca]": "Decoració de les finestres",
        "Name[cs]": "Dekorace oken",
        "Name[de]": "Fensterdekoration",
        "Name[en_GB]": "Window Decorations",
        "Name[es]": "Decoraciones de las ventanas",
        "Name[et]": "Akna dekoratsioonid",
        "Name[eu]": "Leiho-apaindurak",
        "Name[fi]": "Ikkunakoristelu",
        "Name[fr]": "Décorations de fenêtres",
        "Name[ia]": "Decorationes de fenestra",
        "Name[id]": "Dekorasi Jendela",
        "Name[it]": "Decorazioni delle finestre",
        "Name[ja]": "ウィンドウの飾り",
        "Name[ka]": "ფანჯრის დეკორაციები",
        "Name[ko]": "창 장식",
        "Name[nl]": "Vensterdecoraties",
        "Name[nn]": "Vindaugspynt",
        "Name[pl]": "Wygląd okien",
        "Name[pt]": "Decorações das Janelas",
        "Name[pt_BR]": "Decorações da janela",
        "Name[ro]": "Decorații fereastră",
        "Name[ru]": "Оформление окон",
        "Name[sk]": "Dekorácie okien",
        "Name[sl]": "Okrasitev oken",
        "Name[sv]": "Fönsterdekorationer",
        "Name[ta]": "சாளர விளிம்புகள்",
        "Name[tr]": "Pencere Dekorasyonları",
        "Name[uk]": "Обрамлення вікон",
        "Name[vi]": "Trang trí cửa sổ",
        "Name[x-test]": "xxWindow Decorationsxx",
        "Name[zh_CN]": "窗口装饰元素",
        "Name[zh_TW]": "視窗裝飾"
    },
    "X-DocPath": "kcontrol/kwindecoration/index.html",
    "X-KDE-Keywords": "kwin,window,manager,border,style,theme,look,feel,layout,button,handle,edge,kwm,decoration,window decorations,titlebar,window buttons,window border,skin,shadow",
    "X-KDE-Keywords[ar]": "كوين,نافذة,إطار,حد,حدود,مظهر,زر,حافة",
    "X-KDE-Keywords[az]": "kwin,window,manager,border,style,theme,look,feel,layout,button,handle,edge,kwm,decoration,window decorations,titlebar,window buttons,window border,skin,pəncərə,menecer,sərhəd,üslub,mövzu,görünüş,hiss,təbəqə,düymə,dəstək,kənar,dekorasiya,bəzək,pəncərə bəzəyi,başlıq sətri,pəncərə düymələri,pəncərə sərhədləri,qabıq",
    "X-KDE-Keywords[ca@valencia]": "kwin,finestra,gestor,vora,estil,tema,aspecte,comportament,disposició,botó,gestió,vora,kwm,decoració,decoracions de les finestres,barra de títol,botons de les finestres,vores de les finestres,pell",
    "X-KDE-Keywords[ca]": "kwin,finestra,gestor,vora,estil,tema,aspecte,comportament,disposició,botó,gestió,vora,kwm,decoració,decoracions de les finestres,barra de títol,botons de les finestres,vores de les finestres,pell",
    "X-KDE-Keywords[cs]": "kwin,okna,správce,okraj,styl,motiv,vzhled,pocit,rozvržení,tlačítko,madlo,okraj,kwm,dekorace,dekorace oken,pruh titulku,tlačítka okna,okraj okna",
    "X-KDE-Keywords[de]": "Fenster,Rahmen,Design,Stile,Themes,Optik,Erscheinungsbild,Knöpfe,Ränder,Dekorationen",
    "X-KDE-Keywords[en_GB]": "kwin,window,manager,border,style,theme,look,feel,layout,button,handle,edge,kwm,decoration,window decorations,titlebar,window buttons,window border,skin",
    "X-KDE-Keywords[es]": "kwin,ventana,gestor,borde,estilo,tema,aspecto,sensación,disposición,botón,asa,borde,kwm,decoración,decoraciones de la ventana,barra de título,botones de la ventana,borde de la ventana,piel",
    "X-KDE-Keywords[fi]": "kwin,ikkuna,hallinta,ikkunaohjelma,ikkunointiohjelma,kehys,reunus,tyyli,teema,ulkoasu,toiminta,asettelu,painike,kahva,kulma,reuna,kwm,koriste,otsikkorivi,otsikkopalkki,ikkunapainikkeet,ikkunan reuna",
    "X-KDE-Keywords[fr]": "kwin, fenêtre, gestionnaire, bordure, style, ergonomie, thème, apparence, comportement, disposition, bouton, prise en main, bord, kwm, décoration, décoration de fenêtres, barre de titre, boutons de fenêtre, bordure de fenêtre, habillage",
    "X-KDE-Keywords[hu]": "kwin,ablak,kezelő,szegély,stílus,téma,kinézet,megjelenés,elrendezés,gomb,kezel,szél,kwm,dekoráció,ablakdekorációk,címsor,ablakgombok,ablakszegély,felület",
    "X-KDE-Keywords[ia]": "kwin,fenestra,gerente,margine,stilo,thema,aspecto,sentir,disposition,button,maneator,bordo,kwm,decoration,decorationes de fenestra, barra de titulo, buttones de fenestra, bordo de fenestra, apparentia",
    "X-KDE-Keywords[id]": "kwin,jendela,window,manajer,pengelola,bingkai,gaya,tema,tampilan,rasa,layout,tata letak,tombol,pegangan,sisi,kwm,dekorasi,dekorasi jendela,bilah judul,tombol window, bingkai window,kulit",
    "X-KDE-Keywords[it]": "kwin,gestore,finestre,bordo,stile,tema,aspetto,disposizione,pulsante,gestore,kwm,decorazione,decorazioni delle finestre,barra del titolo,pulsanti delle finestre,bordo delle finestre, skin",
    "X-KDE-Keywords[ko]": "kwin,window,manager,border,style,theme,look,feel,layout,button,handle,edge,kwm,decoration,window decorations,titlebar,window buttons,window border,skin,창,관리자,경계선,테두리,스타일,테마,레이아웃,단추,핸들,경계선,장식,창 장식,제목 표시줄,창 단추,창 경계선,창 테두리",
    "X-KDE-Keywords[nl]": "kwin,venster,beheerder,grens,stijl,thema,look,feel,indeling,knop,handel, rand,kwm,decoratie,titelbalk,vensterknoppen,vensterrand,uiterlijk",
    "X-KDE-Keywords[nn]": "kwin,vindauge,handsamar,ramme,kantlinje,stil,tema,lås,utforming,knapp,handtak,kant,kwm,dekorasjon,pynt,vindaugspynt,tittellinje,vindaugsknappar,vindaugskant,vindaugsramme,tema,drakt,utsjånad",
    "X-KDE-Keywords[pl]": "kwin,okno,menadżer,obramowanie,styl,motyw,wygląd,odczucie,układ,przycisk, uchwyt,krawędź,kwm,dekoracja,ozdoby okien,pasek tytułu,przyciski okien,przyciski okien,skóra",
    "X-KDE-Keywords[pt]": "kwin,gestor,janela,contorno,estilo,tema,aparência,comportamento,disposição,botão,pega,extremo,kwm,decoração,decorações das janelas,barra de título,botões das janelas,contorno da janela,visual",
    "X-KDE-Keywords[pt_BR]": "kwin,gerenciador,janela,borda,estilo,tema,aparência,comportamento,layout,botão,canto,extremo,kwm,decoração,decoração de janelas,barra de títulos,botões da janela,borda da janela,pele",
    "X-KDE-Keywords[ro]": "kwin,fereastră,gestionar,contur,stil,tematică,aspect,comportament,aranjament,mâner,muchie,margine,kwm,decorație,decorații ferestre,bară de titlu,butoane fereastră,contur fereastră,fațetă",
    "X-KDE-Keywords[ru]": "kwin,window,manager,border,style,theme,look,feel,layout,button,handle,edge,kwm,decoration,window decorations,titlebar,window buttons,window border,skin,окно,диспетчер,граница,стиль,тема,внешний вид,оформление,разметка,шаблон,кнопка,управление,край,оформление окна,кнопки окна,границы окна",
    "X-KDE-Keywords[sk]": "kwin,okno,správca,okraj,štýl,motív,vzhľad,dojem,rozloženie,tlačidlo,kľučka,hrana, kwm,dekorácia,dekorácie okien,záhlavie,tlačidlá okna,okraj okna,skin",
    "X-KDE-Keywords[sl]": "kwin,okno,okenski upravljalnik,upravljalnik oken,rob,obroba,slog,tema,videz,gumb,ročka,rob,kwm,dekoracija,okrasi okna,naslovna vrstica,gumbi okna,rob okna,preobleka",
    "X-KDE-Keywords[sv]": "kwin,fönster,hantering,kant,stil,tema,utseende,känsla,layout,knapp,grepp,kant,kwm,dekoration,namnlist,fönsterknappar,fönsterkant,skal",
    "X-KDE-Keywords[ta]": "kwin,window,manager,border,style,theme,look,feel,layout,button,handle,edge,kwm,decoration,window decorations,titlebar,window buttons,window border,skin, கேவின், சாளரம், நிர்வாகி, மேலாளி, தோற்றம், தோற்றத்திட்டம், பார்வை, காட்சி, தளவமைப்பு, பட்டன், பொத்தான், ஓரம், விளிம்பு,  தலைப்புப்பட்டை, சாளர விளிம்பு",
    "X-KDE-Keywords[tr]": "kwin,pencere,yönetici,kenarlık,biçim,tema,görünüm,his,şekil,düzen,düğme,kullanım,kenar,kwm,dekorasyon,pencere dekorasyonları,pencere düğmeleri,pencere kenarlıkları,tema",
    "X-KDE-Keywords[uk]": "kwin,window,manager,border,style,theme,look,feel,layout,button,handle,edge,kwm,decoration,window decorations,titlebar,window buttons,window border,skin,вікно,вікна,керування,менеджер,рамка,межа,стиль,тема,вигляд,поведінка,компонування,кнопка,елемент,край,декорації,обрамлення,декорації вікон,обрамлення вікон,смужка заголовка,кнопки вікна,межа вікна,обгортка,шкірка",
    "X-KDE-Keywords[vi]": "kwin,window,manager,border,style,theme,look,feel,layout,button,handle,edge,kwm,decoration,window decorations,titlebar,window buttons,window border,skin,cửa sổ,trình quản lí,viền,kiểu cách,chủ đề,nhìn,cảm,bố cục,nút,quai móc,cạnh,trang trí,trang trí cửa sổ,thanh tiêu đề,nút cửa sổ,viền cửa sổ,da",
    "X-KDE-Keywords[x-test]": "xxkwinxx,xxwindowxx,xxmanagerxx,xxborderxx,xxstylexx,xxthemexx,xxlookxx,xxfeelxx,xxlayoutxx,xxbuttonxx,xxhandlexx,xxedgexx,xxkwmxx,xxdecorationxx,xxwindow decorationsxx,xxtitlebarxx,xxwindow buttonsxx,xxwindow borderxx,xxskinxx",
    "X-KDE-Keywords[zh_CN]": "kwin,window,manager,border,style,theme,look,feel,layout,button,handle,edge,kwm,decoration,window decorations,titlebar,window buttons,window border,skin,窗口,管理器,窗口管理器,边框,风格,样式,主题,界面外观,外观,观感,视觉效果,视效,布局,按钮,拖柄,手柄,边缘,装饰,窗口装饰,标题栏,窗口按钮,窗口边框,窗口外框,皮肤",
    "X-KDE-ParentApp": "kcontrol",
    "X-KDE-System-Settings-Parent-Category": "appearance",
    "X-KDE-Weight": 40
}
