{
    "Categories": "Qt;KDE;",
    "KPlugin": {
        "BugReportUrl": "https://bugs.kde.org/enter_bug.cgi?product=systemsettings&component=kcm_kwinxwayland",
        "Description": "Select which keys will be globally available to legacy X11 apps",
        "Description[ar]": "حدد أي المفاتيح التي ستكون متوفرة لتطبيقات اكس ١١ القديمة",
        "Description[be]": "Абярыце клавішы, якія будуць глабальна даступныя для састарэлых праграм X11",
        "Description[bg]": "Изберете, кои клавиши да бъдат достъпни на глобално ниво за X11 приложения с минали версии",
        "Description[ca@valencia]": "Seleccioneu les tecles que estaran disponibles globalment a les aplicacions X11 antigues",
        "Description[ca]": "Seleccioneu les tecles que seran disponibles globalment a les aplicacions X11 antigues",
        "Description[en_GB]": "Select which keys will be globally available to legacy X11 apps",
        "Description[es]": "Seleccionar las teclas que estarán disponibles globalmente para las aplicaciones X11 heredadas",
        "Description[eu]": "Hautatu ze tekla egongo diren X11 ondare aplikazioetarako globalki erabilgarri",
        "Description[fr]": "Sélectionnez quelles touches doivent être totalement disponibles pour les applications anciennes sous X11",
        "Description[it]": "Seleziona quali tasti saranno disponibili a livello globale per le applicazioni X11 originali",
        "Description[nl]": "Selecteer welke toetsen globaal beschikbaar zijn aan verouderde X11 apps",
        "Description[pl]": "Wybierz klawisze, które będą globalnie dostępne dla starych aplikacji X11",
        "Description[pt]": "Seleccione as teclas que estarão disponíveis globalmente para as aplicações antigas em X11",
        "Description[sl]": "Izberite tipke, ki bodo globalno na voljo za tradicionalne aplikacije X11",
        "Description[ta]": "பழைய X11 செயலிகள் எவ்விசைகளை எப்போது வேண்டுமானாலும் கண்டறிய முடியுமென்பதை அமையுங்கள்",
        "Description[tr]": "Eski X11 uygulamalarına hangi düğmelerin global olarak kullanılabilir olacağını seç",
        "Description[uk]": "Вибір клавіш, які будуть доступні на загальному рівні програмам X11",
        "Description[vi]": "Chọn các phím khả dụng toàn cục cho các ứng dụng X11 đời cũ",
        "Description[x-test]": "xxSelect which keys will be globally available to legacy X11 appsxx",
        "Icon": "xorg",
        "Name": "Legacy X11 App Support",
        "Name[ar]": "دعم تطبيقات اكس١١ القديمة",
        "Name[be]": "Падтрымка састарэлых праграм X11",
        "Name[bg]": "Поддръжка на минали версии  X11 приложения",
        "Name[ca@valencia]": "Implementació de les aplicacions X11 antigues",
        "Name[ca]": "Implementació de les aplicacions X11 antigues",
        "Name[en_GB]": "Legacy X11 App Support",
        "Name[es]": "Compatibilidad de aplicaciones X11 heredadas",
        "Name[eu]": "X11 ondare aplikazioen euskarria",
        "Name[fr]": "Prise en charge des applications anciennes sous X11",
        "Name[it]": "Supporto per le applicazioni X11 originali",
        "Name[ka]": "მოძველებული X11 პროგრამების მხარდაჭერა",
        "Name[nl]": "Verouderde ondersteuning voor X11 App",
        "Name[pl]": "Wsparcie starych aplikacji X11",
        "Name[pt]": "Suporte para Aplicações de X11 Antigas",
        "Name[sl]": "Podpora tradicionalnim aplikacijam X11",
        "Name[ta]": "பழைய X11 செயலிகளுக்கான ஆதரவு",
        "Name[tr]": "Eski X11 Uygulamaları Desteği",
        "Name[uk]": "Підтримка застарілих програм X11",
        "Name[vi]": "Hỗ trợ ứng dụng X11 đời cũ",
        "Name[x-test]": "xxLegacy X11 App Supportxx"
    },
    "X-KDE-Keywords": "xwayland,global,keys,forward",
    "X-KDE-OnlyShowOnQtPlatforms": [
        "wayland"
    ],
    "X-KDE-ParentApp": "kcontrol",
    "X-KDE-System-Settings-Parent-Category": "applications"
}
